College/3-2/dsd/hw/hw7-1/simulation/qsim/hw7_1.msim.vcd
$comment
	File created using the following command:
		vcd file hw7_1.msim.vcd -direction
$end
$date
	Thu Apr 07 17:41:18 2016
$end
$version
	ModelSim Version 10.1d
$end
$timescale
	1ps
$end
$scope module hw7_1_vlg_vec_tst $end
$var reg 1 ! n_cp $end
$var reg 1 " n_rd $end
$var wire 1 # q [3] $end
$var wire 1 $ q [2] $end
$var wire 1 % q [1] $end
$var wire 1 & q [0] $end
$var wire 1 ' sampler $end
$scope module i1 $end
$var wire 1 ( gnd $end
$var wire 1 ) vcc $end
$var wire 1 * unknown $end
$var tri1 1 + devclrn $end
$var tri1 1 , devpor $end
$var tri1 1 - devoe $end
$var wire 1 . n_cp~combout $end
$var wire 1 / n_cp~clkctrl_outclk $end
$var wire 1 0 qs[0]~3_combout $end
$var wire 1 1 n_rd~combout $end
$var wire 1 2 qs[1]~0_combout $end
$var wire 1 3 qs[2]~1_combout $end
$var wire 1 4 qs[3]~2_combout $end
$var wire 1 5 Equal0~0_combout $end
$var wire 1 6 process_0~0_combout $end
$var wire 1 7 qs [3] $end
$var wire 1 8 qs [2] $end
$var wire 1 9 qs [1] $end
$var wire 1 : qs [0] $end
$upscope $end
$upscope $end
$enddefinitions $end
#0
$dumpvars
0!
0"
x&
x%
x$
x#
x'
0(
1)
x*
1+
1,
1-
0.
x/
x0
01
x2
x3
x4
x5
x6
x:
x9
x8
x7
$end
#117
0/
#218
09
08
07
0:
#541
10
#703
03
#707
02
#952
05
#959
04
#2534
16
#3362
0$
#3364
0%
#3371
0&
#3383
0#
#10000
1!
0'
#10989
1.
#11106
1/
#20000
0!
1'
#20989
0.
#21106
0/
#30000
1!
0'
#30989
1.
#31106
1/
#40000
1"
0!
1'
#40979
11
#40989
0.
#41106
0/
#43513
06
#50000
1!
0'
#50989
1.
#51106
1/
#53010
1:
#53333
00
#53499
12
#56163
1&
#60000
0!
1'
#60989
0.
#61106
0/
#70000
1!
0'
#70989
1.
#71106
1/
#73010
19
0:
#73333
10
02
#73499
12
#76156
1%
#76163
0&
#80000
0!
1'
#80989
0.
#81106
0/
#90000
1!
0'
#90989
1.
#91106
1/
#93010
1:
#93333
00
#93499
02
#93807
13
#96163
1&
#100000
0!
1'
#100989
0.
#101106
0/
#110000
1!
0'
#110989
1.
#111106
1/
#113010
09
18
0:
#113333
10
03
12
#113495
13
#113499
02
#116154
1$
#116156
0%
#116163
0&
#120000
0!
1'
#120989
0.
#121106
0/
#130000
1!
0'
#130989
1.
#131106
1/
#133010
1:
#133333
00
#133499
12
#136163
1&
#140000
0!
1'
#140989
0.
#141106
0/
#150000
1!
0'
#150989
1.
#151106
1/
#153010
19
0:
#153333
10
02
#153499
12
#156156
1%
#156163
0&
#160000
0!
1'
#160989
0.
#161106
0/
#170000
1!
0'
#170989
1.
#171106
1/
#173010
1:
#173333
00
#173498
14
#173499
02
#173807
03
#176163
1&
#180000
0!
1'
#180989
0.
#181106
0/
#190000
1!
0'
#190989
1.
#191106
1/
#193010
09
08
17
0:
#193333
10
13
12
#193495
03
#193499
02
#196154
0$
#196156
0%
#196163
0&
#196175
1#
#200000
0!
1'
#200989
0.
#201106
0/
#210000
1!
0'
#210989
1.
#211106
1/
#213010
1:
#213333
00
#213499
12
#216163
1&
#220000
0!
1'
#220989
0.
#221106
0/
#230000
1!
0'
#230989
1.
#231106
1/
#233010
19
0:
#233333
10
02
#233499
12
#236156
1%
#236163
0&
#240000
0!
1'
#240989
0.
#241106
0/
#250000
1!
0'
#250989
1.
#251106
1/
#253010
1:
#253333
00
#253499
02
#253807
13
#256163
1&
#260000
0!
1'
#260989
0.
#261106
0/
#270000
1!
0'
#270989
1.
#271106
1/
#273010
09
18
0:
#273333
10
03
12
#273495
13
#273499
02
#273766
15
#274155
16
#275136
08
07
#275459
04
03
#275870
05
#276156
0%
#276163
0&
#276259
06
#278301
0#
#280000
0!
1'
#280989
0.
#281106
0/
#290000
1!
0'
#290989
1.
#291106
1/
#293010
1:
#293333
00
#293499
12
#296163
1&
#300000
0!
1'
#300989
0.
#301106
0/
#310000
1!
0'
#310989
1.
#311106
1/
#313010
19
0:
#313333
10
02
#313499
12
#316156
1%
#316163
0&
#320000
0!
1'
#320989
0.
#321106
0/
#330000
1!
0'
#330989
1.
#331106
1/
#333010
1:
#333333
00
#333499
02
#333807
13
#336163
1&
#340000
0!
1'
#340989
0.
#341106
0/
#350000
1!
0'
#350989
1.
#351106
1/
#353010
09
18
0:
#353333
10
03
12
#353495
13
#353499
02
#356154
1$
#356156
0%
#356163
0&
#360000
0!
1'
#360989
0.
#361106
0/
#370000
1!
0'
#370989
1.
#371106
1/
#373010
1:
#373333
00
#373499
12
#376163
1&
#380000
0!
1'
#380989
0.
#381106
0/
#390000
1!
0'
#390989
1.
#391106
1/
#393010
19
0:
#393333
10
02
#393499
12
#396156
1%
#396163
0&
#400000
0!
1'
#400989
0.
#401106
0/
#410000
1!
0'
#410989
1.
#411106
1/
#413010
1:
#413333
00
#413498
14
#413499
02
#413807
03
#416163
1&
#420000
0!
1'
#420989
0.
#421106
0/
#430000
1!
0'
#430989
1.
#431106
1/
#433010
09
08
17
0:
#433333
10
13
12
#433495
03
#433499
02
#436154
0$
#436156
0%
#436163
0&
#436175
1#
#440000
0!
1'
#440989
0.
#441106
0/
#450000
1!
0'
#450989
1.
#451106
1/
#453010
1:
#453333
00
#453499
12
#456163
1&
#460000
0!
1'
#460989
0.
#461106
0/
#470000
1!
0'
#470989
1.
#471106
1/
#473010
19
0:
#473333
10
02
#473499
12
#476156
1%
#476163
0&
#480000
0!
1'
#480989
0.
#481106
0/
#490000
1!
0'
#490989
1.
#491106
1/
#493010
1:
#493333
00
#493499
02
#493807
13
#496163
1&
#500000
0!
1'
#500989
0.
#501106
0/
#510000
1!
0'
#510989
1.
#511106
1/
#513010
09
18
0:
#513333
10
03
12
#513495
13
#513499
02
#513766
15
#514155
16
#515136
08
07
#515459
04
03
#515870
05
#516156
0%
#516163
0&
#516259
06
#518301
0#
#520000
0!
1'
#520989
0.
#521106
0/
#530000
1!
0'
#530989
1.
#531106
1/
#533010
1:
#533333
00
#533499
12
#536163
1&
#540000
0!
1'
#540989
0.
#541106
0/
#550000
1!
0'
#550989
1.
#551106
1/
#553010
19
0:
#553333
10
02
#553499
12
#556156
1%
#556163
0&
#560000
0!
1'
#560989
0.
#561106
0/
#570000
1!
0'
#570989
1.
#571106
1/
#573010
1:
#573333
00
#573499
02
#573807
13
#576163
1&
#580000
0!
1'
#580989
0.
#581106
0/
#590000
1!
0'
#590989
1.
#591106
1/
#593010
09
18
0:
#593333
10
03
12
#593495
13
#593499
02
#596154
1$
#596156
0%
#596163
0&
#600000
0!
1'
#600989
0.
#601106
0/
#610000
1!
0'
#610989
1.
#611106
1/
#613010
1:
#613333
00
#613499
12
#616163
1&
#620000
0!
1'
#620989
0.
#621106
0/
#630000
1!
0'
#630989
1.
#631106
1/
#633010
19
0:
#633333
10
02
#633499
12
#636156
1%
#636163
0&
#640000
0!
1'
#640989
0.
#641106
0/
#650000
1!
0'
#650989
1.
#651106
1/
#653010
1:
#653333
00
#653498
14
#653499
02
#653807
03
#656163
1&
#660000
0!
1'
#660989
0.
#661106
0/
#670000
1!
0'
#670989
1.
#671106
1/
#673010
09
08
17
0:
#673333
10
13
12
#673495
03
#673499
02
#676154
0$
#676156
0%
#676163
0&
#676175
1#
#680000
0!
1'
#680989
0.
#681106
0/
#690000
1!
0'
#690989
1.
#691106
1/
#693010
1:
#693333
00
#693499
12
#696163
1&
#700000
0!
1'
#700989
0.
#701106
0/
#710000
1!
0'
#710989
1.
#711106
1/
#713010
19
0:
#713333
10
02
#713499
12
#716156
1%
#716163
0&
#720000
0!
1'
#720989
0.
#721106
0/
#730000
1!
0'
#730989
1.
#731106
1/
#733010
1:
#733333
00
#733499
02
#733807
13
#736163
1&
#740000
0!
1'
#740989
0.
#741106
0/
#750000
1!
0'
#750989
1.
#751106
1/
#753010
09
18
0:
#753333
10
03
12
#753495
13
#753499
02
#753766
15
#754155
16
#755136
08
07
#755459
04
03
#755870
05
#756156
0%
#756163
0&
#756259
06
#758301
0#
#760000
0!
1'
#760989
0.
#761106
0/
#770000
1!
0'
#770989
1.
#771106
1/
#773010
1:
#773333
00
#773499
12
#776163
1&
#780000
0!
1'
#780989
0.
#781106
0/
#790000
1!
0'
#790989
1.
#791106
1/
#793010
19
0:
#793333
10
02
#793499
12
#796156
1%
#796163
0&
#800000
0!
1'
#800989
0.
#801106
0/
#810000
1!
0'
#810989
1.
#811106
1/
#813010
1:
#813333
00
#813499
02
#813807
13
#816163
1&
#820000
0!
1'
#820989
0.
#821106
0/
#830000
1!
0'
#830989
1.
#831106
1/
#833010
09
18
0:
#833333
10
03
12
#833495
13
#833499
02
#836154
1$
#836156
0%
#836163
0&
#840000
0!
1'
#840989
0.
#841106
0/
#850000
1!
0'
#850989
1.
#851106
1/
#853010
1:
#853333
00
#853499
12
#856163
1&
#860000
0!
1'
#860989
0.
#861106
0/
#870000
1!
0'
#870989
1.
#871106
1/
#873010
19
0:
#873333
10
02
#873499
12
#876156
1%
#876163
0&
#880000
0!
1'
#880989
0.
#881106
0/
#890000
1!
0'
#890989
1.
#891106
1/
#893010
1:
#893333
00
#893498
14
#893499
02
#893807
03
#896163
1&
#900000
0!
1'
#900989
0.
#901106
0/
#910000
1!
0'
#910989
1.
#911106
1/
#913010
09
08
17
0:
#913333
10
13
12
#913495
03
#913499
02
#916154
0$
#916156
0%
#916163
0&
#916175
1#
#920000
0!
1'
#920989
0.
#921106
0/
#930000
1!
0'
#930989
1.
#931106
1/
#933010
1:
#933333
00
#933499
12
#936163
1&
#940000
0!
1'
#940989
0.
#941106
0/
#950000
1!
0'
#950989
1.
#951106
1/
#953010
19
0:
#953333
10
02
#953499
12
#956156
1%
#956163
0&
#960000
0!
1'
#960989
0.
#961106
0/
#970000
1!
0'
#970989
1.
#971106
1/
#973010
1:
#973333
00
#973499
02
#973807
13
#976163
1&
#980000
0!
1'
#980989
0.
#981106
0/
#990000
1!
0'
#990989
1.
#991106
1/
#993010
09
18
0:
#993333
10
03
12
#993495
13
#993499
02
#993766
15
#994155
16
#995136
08
07
#995459
04
03
#995870
05
#996156
0%
#996163
0&
#996259
06
#998301
0#
