College/3-2/dsd/hw/hw6/simulation/qsim/hw6.msim.vcd
$comment
	File created using the following command:
		vcd file hw6.msim.vcd -direction
$end
$date
	Wed Mar 16 10:58:20 2016
$end
$version
	ModelSim Version 10.1d
$end
$timescale
	1ps
$end
$scope module hw6_vlg_vec_tst $end
$var reg 1 ! clk $end
$var reg 1 " j $end
$var reg 1 # k $end
$var reg 1 $ resetn $end
$var wire 1 % q $end
$var wire 1 & qn $end
$var wire 1 ' sampler $end
$scope module i1 $end
$var wire 1 ( gnd $end
$var wire 1 ) vcc $end
$var wire 1 * unknown $end
$var tri1 1 + devclrn $end
$var tri1 1 , devpor $end
$var tri1 1 - devoe $end
$var wire 1 . k~combout $end
$var wire 1 / clk~combout $end
$var wire 1 0 clk~clkctrl_outclk $end
$var wire 1 1 j~combout $end
$var wire 1 2 resetn~combout $end
$var wire 1 3 sq~0_combout $end
$var wire 1 4 sq~regout $end
$var wire 1 5 q~reg0feeder_combout $end
$var wire 1 6 q~reg0_regout $end
$var wire 1 7 qn~0_combout $end
$var wire 1 8 qn~reg0_regout $end
$upscope $end
$upscope $end
$enddefinitions $end
#0
$dumpvars
0!
0"
0#
0$
0%
0&
x'
0(
1)
x*
1+
1,
1-
0.
0/
00
01
02
03
04
05
06
17
08
$end
#5000
1!
1/
10
0'
18
1&
#10000
1"
0!
11
0/
00
1'
#15000
1!
1/
10
0'
#20000
1#
0"
0!
1.
01
0/
00
1'
#25000
1!
1/
10
0'
#30000
1"
0!
11
0/
00
1'
#35000
1!
1/
10
0'
#40000
1$
0#
0"
0!
12
0.
01
0/
00
1'
#45000
1!
1/
10
0'
#50000
1"
0!
11
0/
00
1'
13
#55000
1!
1/
10
0'
14
07
15
#60000
1#
0"
0!
1.
01
0/
00
1'
03
#65000
1!
1/
10
0'
08
16
04
17
05
0&
1%
#70000
1"
0!
11
0/
00
1'
13
#75000
1!
1/
10
0'
18
06
14
07
15
03
1&
0%
#80000
0$
0#
0"
0!
02
0.
01
0/
00
1'
13
#85000
1!
1/
10
0'
08
16
0&
1%
#90000
1"
0!
11
0/
00
1'
#95000
1!
1/
10
0'
#100000
1#
0"
0!
1.
01
0/
00
1'
#105000
1!
1/
10
0'
#110000
1"
0!
11
0/
00
1'
#115000
1!
1/
10
0'
#120000
1$
0#
0"
0!
12
0.
01
0/
00
1'
#125000
1!
1/
10
0'
#130000
1"
0!
11
0/
00
1'
#135000
1!
1/
10
0'
#140000
1#
0"
0!
1.
01
0/
00
1'
03
#145000
1!
1/
10
0'
04
17
05
#150000
1"
0!
11
0/
00
1'
13
#155000
1!
1/
10
0'
18
06
14
07
15
03
1&
0%
#160000
0$
0#
0"
0!
02
0.
01
0/
00
1'
13
#165000
1!
1/
10
0'
08
16
0&
1%
#170000
1"
0!
11
0/
00
1'
#175000
1!
1/
10
0'
#180000
1#
0"
0!
1.
01
0/
00
1'
#185000
1!
1/
10
0'
#190000
1"
0!
11
0/
00
1'
#195000
1!
1/
10
0'
#200000
1$
0#
0"
0!
12
0.
01
0/
00
1'
#205000
1!
1/
10
0'
#210000
1"
0!
11
0/
00
1'
#215000
1!
1/
10
0'
#220000
1#
0"
0!
1.
01
0/
00
1'
03
#225000
1!
1/
10
0'
04
17
05
#230000
1"
0!
11
0/
00
1'
13
#235000
1!
1/
10
0'
18
06
14
07
15
03
1&
0%
#240000
0$
0#
0"
0!
02
0.
01
0/
00
1'
13
#245000
1!
1/
10
0'
08
16
0&
1%
#250000
1"
0!
11
0/
00
1'
#255000
1!
1/
10
0'
#260000
1#
0"
0!
1.
01
0/
00
1'
#265000
1!
1/
10
0'
#270000
1"
0!
11
0/
00
1'
#275000
1!
1/
10
0'
#280000
1$
0#
0"
0!
12
0.
01
0/
00
1'
#285000
1!
1/
10
0'
#290000
1"
0!
11
0/
00
1'
#295000
1!
1/
10
0'
#300000
1#
0"
0!
1.
01
0/
00
1'
03
#305000
1!
1/
10
0'
04
17
05
#310000
1"
0!
11
0/
00
1'
13
#315000
1!
1/
10
0'
18
06
14
07
15
03
1&
0%
#320000
0$
0#
0"
0!
02
0.
01
0/
00
1'
13
#325000
1!
1/
10
0'
08
16
0&
1%
#330000
1"
0!
11
0/
00
1'
#335000
1!
1/
10
0'
#340000
1#
0"
0!
1.
01
0/
00
1'
#345000
1!
1/
10
0'
#350000
1"
0!
11
0/
00
1'
#355000
1!
1/
10
0'
#360000
1$
0#
0"
0!
12
0.
01
0/
00
1'
#365000
1!
1/
10
0'
#370000
1"
0!
11
0/
00
1'
#375000
1!
1/
10
0'
#380000
1#
0"
0!
1.
01
0/
00
1'
03
#385000
1!
1/
10
0'
04
17
05
#390000
1"
0!
11
0/
00
1'
13
#395000
1!
1/
10
0'
18
06
14
07
15
03
1&
0%
#400000
0$
0#
0"
0!
02
0.
01
0/
00
1'
13
#405000
1!
1/
10
0'
08
16
0&
1%
#410000
1"
0!
11
0/
00
1'
#415000
1!
1/
10
0'
#420000
1#
0"
0!
1.
01
0/
00
1'
#425000
1!
1/
10
0'
#430000
1"
0!
11
0/
00
1'
#435000
1!
1/
10
0'
#440000
1$
0#
0"
0!
12
0.
01
0/
00
1'
#445000
1!
1/
10
0'
#450000
1"
0!
11
0/
00
1'
#455000
1!
1/
10
0'
#460000
1#
0"
0!
1.
01
0/
00
1'
03
#465000
1!
1/
10
0'
04
17
05
#470000
1"
0!
11
0/
00
1'
13
#475000
1!
1/
10
0'
18
06
14
07
15
03
1&
0%
#480000
0$
0#
0"
0!
02
0.
01
0/
00
1'
13
#485000
1!
1/
10
0'
08
16
0&
1%
#490000
1"
0!
11
0/
00
1'
#495000
1!
1/
10
0'
#500000
1#
0"
0!
1.
01
0/
00
1'
#505000
1!
1/
10
0'
#510000
1"
0!
11
0/
00
1'
#515000
1!
1/
10
0'
#520000
1$
0#
0"
0!
12
0.
01
0/
00
1'
#525000
1!
1/
10
0'
#530000
1"
0!
11
0/
00
1'
#535000
1!
1/
10
0'
#540000
1#
0"
0!
1.
01
0/
00
1'
03
#545000
1!
1/
10
0'
04
17
05
#550000
1"
0!
11
0/
00
1'
13
#555000
1!
1/
10
0'
18
06
14
07
15
03
1&
0%
#560000
0$
0#
0"
0!
02
0.
01
0/
00
1'
13
#565000
1!
1/
10
0'
08
16
0&
1%
#570000
1"
0!
11
0/
00
1'
#575000
1!
1/
10
0'
#580000
1#
0"
0!
1.
01
0/
00
1'
#585000
1!
1/
10
0'
#590000
1"
0!
11
0/
00
1'
#595000
1!
1/
10
0'
#600000
1$
0#
0"
0!
12
0.
01
0/
00
1'
#605000
1!
1/
10
0'
#610000
1"
0!
11
0/
00
1'
#615000
1!
1/
10
0'
#620000
1#
0"
0!
1.
01
0/
00
1'
03
#625000
1!
1/
10
0'
04
17
05
#630000
1"
0!
11
0/
00
1'
13
#635000
1!
1/
10
0'
18
06
14
07
15
03
1&
0%
#640000
0$
0#
0"
0!
02
0.
01
0/
00
1'
13
#645000
1!
1/
10
0'
08
16
0&
1%
#650000
1"
0!
11
0/
00
1'
#655000
1!
1/
10
0'
#660000
1#
0"
0!
1.
01
0/
00
1'
#665000
1!
1/
10
0'
#670000
1"
0!
11
0/
00
1'
#675000
1!
1/
10
0'
#680000
1$
0#
0"
0!
12
0.
01
0/
00
1'
#685000
1!
1/
10
0'
#690000
1"
0!
11
0/
00
1'
#695000
1!
1/
10
0'
#700000
1#
0"
0!
1.
01
0/
00
1'
03
#705000
1!
1/
10
0'
04
17
05
#710000
1"
0!
11
0/
00
1'
13
#715000
1!
1/
10
0'
18
06
14
07
15
03
1&
0%
#720000
0$
0#
0"
0!
02
0.
01
0/
00
1'
13
#725000
1!
1/
10
0'
08
16
0&
1%
#730000
1"
0!
11
0/
00
1'
#735000
1!
1/
10
0'
#740000
1#
0"
0!
1.
01
0/
00
1'
#745000
1!
1/
10
0'
#750000
1"
0!
11
0/
00
1'
#755000
1!
1/
10
0'
#760000
1$
0#
0"
0!
12
0.
01
0/
00
1'
#765000
1!
1/
10
0'
#770000
1"
0!
11
0/
00
1'
#775000
1!
1/
10
0'
#780000
1#
0"
0!
1.
01
0/
00
1'
03
#785000
1!
1/
10
0'
04
17
05
#790000
1"
0!
11
0/
00
1'
13
#795000
1!
1/
10
0'
18
06
14
07
15
03
1&
0%
#800000
0$
0#
0"
0!
02
0.
01
0/
00
1'
13
#805000
1!
1/
10
0'
08
16
0&
1%
#810000
1"
0!
11
0/
00
1'
#815000
1!
1/
10
0'
#820000
1#
0"
0!
1.
01
0/
00
1'
#825000
1!
1/
10
0'
#830000
1"
0!
11
0/
00
1'
#835000
1!
1/
10
0'
#840000
1$
0#
0"
0!
12
0.
01
0/
00
1'
#845000
1!
1/
10
0'
#850000
1"
0!
11
0/
00
1'
#855000
1!
1/
10
0'
#860000
1#
0"
0!
1.
01
0/
00
1'
03
#865000
1!
1/
10
0'
04
17
05
#870000
1"
0!
11
0/
00
1'
13
#875000
1!
1/
10
0'
18
06
14
07
15
03
1&
0%
#880000
0$
0#
0"
0!
02
0.
01
0/
00
1'
13
#885000
1!
1/
10
0'
08
16
0&
1%
#890000
1"
0!
11
0/
00
1'
#895000
1!
1/
10
0'
#900000
1#
0"
0!
1.
01
0/
00
1'
#905000
1!
1/
10
0'
#910000
1"
0!
11
0/
00
1'
#915000
1!
1/
10
0'
#920000
1$
0#
0"
0!
12
0.
01
0/
00
1'
#925000
1!
1/
10
0'
#930000
1"
0!
11
0/
00
1'
#935000
1!
1/
10
0'
#940000
1#
0"
0!
1.
01
0/
00
1'
03
#945000
1!
1/
10
0'
04
17
05
#950000
1"
0!
11
0/
00
1'
13
#955000
1!
1/
10
0'
18
06
14
07
15
03
1&
0%
#960000
0$
0#
0"
0!
02
0.
01
0/
00
1'
13
#965000
1!
1/
10
0'
08
16
0&
1%
#970000
1"
0!
11
0/
00
1'
#975000
1!
1/
10
0'
#980000
1#
0"
0!
1.
01
0/
00
1'
#985000
1!
1/
10
0'
#990000
1"
0!
11
0/
00
1'
#995000
1!
1/
10
0'
#999000
0#
0"
0!
0.
01
0/
00
1'
